%YAML 1.1
%TAG !u! tag:unity3d.com,2011:
--- !u!21 &2100000
Material:
  serializedVersion: 6
  m_ObjectHideFlags: 0
  m_PrefabParentObject: {fileID: 0}
  m_PrefabInternal: {fileID: 0}
  m_Name: Main_Dither_4
  m_Shader: {fileID: 4800000, guid: 8e9e80aef40e72e48a35cb8f60212258, type: 3}
  m_ShaderKeywords: 
  m_LightmapFlags: 5
  m_CustomRenderQueue: -1
  stringTagMap: {}
  m_SavedProperties:
    serializedVersion: 2
    m_TexEnvs:
      data:
        first:
          name: _MainTex
        second:
          m_Texture: {fileID: 8400000, guid: 2fa2fcdb92f992c4f9ce26d9a0eed818, type: 2}
          m_Scale: {x: 1, y: 1}
          m_Offset: {x: 0, y: 0}
      data:
        first:
          name: _Dither
        second:
          m_Texture: {fileID: 2800000, guid: d1bffb969c2a64e4fb5dcd9bb39a5f87, type: 3}
          m_Scale: {x: 1, y: 1}
          m_Offset: {x: 0, y: 0}
    m_Floats:
      data:
        first:
          name: _Size
        second: 4
      data:
        first:
          name: _Right
        second: 62
      data:
        first:
          name: _Width
        second: 64
      data:
        first:
          name: _Height
        second: 16
      data:
        first:
          name: _GrayR
        second: 1
      data:
        first:
          name: _GrayG
        second: 0
      data:
        first:
          name: _GrayB
        second: 0
      data:
        first:
          name: _Divisor
        second: 1
    m_Colors: {}
