%YAML 1.1
%TAG !u! tag:unity3d.com,2011:
--- !u!114 &11400000
MonoBehaviour:
  m_ObjectHideFlags: 0
  m_PrefabParentObject: {fileID: 0}
  m_PrefabInternal: {fileID: 0}
  m_GameObject: {fileID: 0}
  m_Enabled: 1
  m_EditorHideFlags: 0
  m_Script: {fileID: 11500000, guid: a41d29dcde6d0674e815e5edf389ea97, type: 3}
  m_Name: To_Setup_Dither_Do_Reset
  m_EditorClassIdentifier: 
  ditherMat2: {fileID: 2100000, guid: 5193c075ab00caf499dffba8439af410, type: 2}
  ditherMat4: {fileID: 2100000, guid: 88cc8c1f0512e3149bc1157831b4b869, type: 2}
  patternTex2: {fileID: 2800000, guid: 55a75d0fa1d012746b395c90143bc42b, type: 3}
  patternTex4: {fileID: 2800000, guid: d1bffb969c2a64e4fb5dcd9bb39a5f87, type: 3}
  mainTex: {fileID: 8400000, guid: 2fa2fcdb92f992c4f9ce26d9a0eed818, type: 2}
